{
    "description": "Use scheme ?ai={ai_$oid}&apid=24440&goodvert={clickId_$oid}-{subid}",
    "values": {
        "ai": "50f9203c210fdd671800000d",
        "apid": "24429",
        "gdclick": "50a4fdea258d41e272000007"
    },
    "query": {
        "ai": "@ai",
        "apid": "@apid",
        "goodvert": {
            "template": "{0}-",
            "subtitutes": ["@gdclick"]
        }
    },
    "should_fail": true
}