{
    "description": "Check currency",
    "values": {
        "ai": "50f9203c210fdd671800000d",
        "apid": "24440",
        "gdclick": "50a4fdea258d41e272000002",
        "gdsource": "5100eed2f7eacf0a75000027",
        "clickId": "510925b61bb6220816000001",
        "subid": "678",
        "price": "10.5",
        "currency": "USD"
    },
    "query": {
        "ai": "@ai",
        "apid": "@apid",
        "goodvert": {
            "template": "{0}.{1}.{2}-{3}",
            "subtitutes": ["@gdclick", "@gdsource", "@clickId", "@subid"]
        },
        "price": "@price",
        "currency": "@currency"
    }
}