{
    "description": "Use scheme ?ai={ai_$oid}&apid=24440&goodvert={gdclick_$oid}.{gdsource_$oid}.{clickId_$oid}",
    "values": {
        "ai": "50f9203c210fdd671800000d",
        "apid": "24443",
        "gdclick": "50a4fdea258d41e272000011",
        "gdsource": "5100eed2f7eacf0a75000027",
        "clickId": "510925b61bb622081"
        },
    "query": {
        "ai": "@ai",
        "apid": "@apid",
        "goodvert": {
            "template": "{0}.{1}.{2}",
            "subtitutes": ["@gdclick", "@gdsource", "@clickId"]
        }
    },
    "should_fail": true
}