{
    "description": "Use scheme ?ai={ai_$oid}&apid=24440&gdclick={gdclick_$oid}&gdsource={gdsource_$oid}",
    "description": "",
    "values": {
        "ai": "50f9203c210fdd671800000d",
        "apid": "24448",
        "gdclick": "50a4fdea258d41e272000002",
        "gdsource": "5100eed2f7eacf0a75000027"
    },
    "query": {
        "ai": "@ai",
        "apid": "@apid",
        "gdsource": "@gdsource",
        "gdclick": "@gdclick"
    }
}