{
    "description": "Use scheme ?ai={ai}&apid={apid}&goodvert={gdclick}.{gdsource}-{subid}&pass={pass}",
    "values": {
        "ai": "50f9203c210fdd671800000d",
        "apid": "24458",
        "gdclick": "50a4fdea258d41e272000003",
        "gdsource": "5100eed2f7eacf0a75000027",
        "pass": "4fb0a846c71a2fe35f1ae1175ed38660",
        "subid": ".123"
    },
    "query": {
        "ai": "@ai",
        "apid": "@apid",
        "pass": "@pass",
        "goodvert": {
            "template": "{0}.{1}-{2}",
            "subtitutes": ["@gdclick", "@gdsource", "@subid"]
        }
    }
}