{
    "description": "Use scheme ?ai={ai}&apid={apid}&goodvert={gdclick}.{gdsource}.{clickid}-{subid}&pass={pass}",
    "values": {
        "ai": "50f9203c210fdd671800000d",
        "apid": "24453",
        "gdclick": "50a4fdea258d41e272000003",
        "gdsource": "5100eed2f7eacf0a75000027",
        "clickId": "510925b61bb6220816000004",
        "pass": "4b856796eee4ba996bcacf90a24452a2",
        "subid": "738",
        "aprice": "10.5",
        "currency": "USD"
    },
    "query": {
        "ai": "@ai",
        "apid": "@apid",
        "pass": "@pass",
        "goodvert": {
            "template": "{0}.{1}.{2}-{3}",
            "subtitutes": ["@gdclick", "@gdsource", "@clickId", "@subid"]
        },
        "aprice": "@aprice",
        "currency": "@currency"
    }
}